  ______                              _      _____   _                     _
 |  ____|                            | |    / ____| | |                   | |
 | |__     _ __    __ _   _   _    __| |   | |      | |__     ___    ___  | | __
 |  __|   | '__|  / _` | | | | |  / _` |   | |      | '_ \   / _ \  / __| | |/ /
 | |      | |    | (_| | | |_| | | (_| |   | |____  | | | | |  __/ | (__  |   <
 |_|      |_|     \__,_|  \__,_|  \__,_|    \_____| |_| |_|  \___|  \___| |_|\_\
